nov 24, 2017 1:46:59 PM no.ntnu.imt3281.ludo.server.Server <init>
INFO: Start of Server log
nov 24, 2017 1:47:00 PM no.ntnu.imt3281.ludo.server.Server <init>
WARNING: Address already in use: JVM_Bind
